﻿{
	"profiles": {
		"Development": {
			"commandName": "Project",
			"dotnetRunMessages": "true",
			"launchBrowser": true,
			"launchUrl": "swagger",
			"applicationUrl": "https://localhost:5001;http://localhost:5000",
			"environmentVariables": {
				"ASPNETCORE_ENVIRONMENT": "Development"
			}
		}
	}
}
